…
    ## Warning in mask$eval_all_mutate(quo): 强制改变过程中产生了NA

``` r
homicides_data
```

    ## # A tibble: 39,693 × 14
    ##    uid   repor…¹ victi…² victi…³ victi…⁴ victi…⁵ victi…⁶ city  state   lat   lon
    ##    <chr>   <dbl> <chr>   <chr>   <chr>     <dbl> <chr>   <chr> <chr> <dbl> <dbl>
    ##  1 Alb-…  2.01e7 SATTER… VIVIANA White        15 Female  Albu… NM     35.1 -107.
    ##  2 Alb-…  2.01e7 MULA    VIVIAN  White        72 Female  Albu… NM     35.1 -107.
    ##  3 Alb-…  2.01e7 BOOK    GERALD… White        91 Female  Albu… NM     35.2 -107.
    ##  4 Alb-…  2.01e7 MARTIN… GUSTAVO White        56 Male    Albu… NM     35.1 -107.
    ##  5 Alb-…  2.01e7 LUJAN   KEVIN   White        NA Male    Albu… NM     35.1 -107.
    ##  6 Alb-…  2.01e7 GRAY    STEFAN… White        43 Female  Albu… NM     35.1 -107.
    ##  7 Alb-…  2.01e7 DAVID   LARRY   White        52 Male    Albu… NM     NA     NA 
    ##  8 Alb-…  2.01e7 BRITO   ELIZAB… White        22 Female  Albu… NM     35.1 -107.
    ##  9 Alb-…  2.01e7 KING    TEVION  Black        15 Male    Albu… NM     35.1 -107.
    ## 10 Alb-…  2.01e7 BOYKIN  CEDRIC  Black        25 Male    Albu… NM     35.1 -107.
    ## # … with 39,683 more rows, 3 more variables: disposition <chr>,
    ## #   city_state <chr>, resolved <chr>, and abbreviated variable names
    ## #   ¹​reported_date, ²​victim_last, ³​victim_first, ⁴​victim_race, ⁵​victim_age,
    ## #   ⁶​victim_sex

``` r
baltimore_df = 
  homicides_data %>%
  filter(city_state == "Baltimore,MD")
baltimore_df
```

    ## # A tibble: 2,753 × 14
    ##    uid   repor…¹ victi…² victi…³ victi…⁴ victi…⁵ victi…⁶ city  state   lat   lon
    ##    <chr>   <dbl> <chr>   <chr>   <chr>     <dbl> <chr>   <chr> <chr> <dbl> <dbl>
    ##  1 Bal-…  2.01e7 NELSON  LEON    Black        17 Male    Balt… MD     39.3 -76.7
    ##  2 Bal-…  2.01e7 GOLF    EDDIE   Black        26 Male    Balt… MD     39.3 -76.7
    ##  3 Bal-…  2.01e7 MACKEN… THOMAS… Black        21 Male    Balt… MD     39.4 -76.6
    ##  4 Bal-…  2.01e7 CANUPP  EDWARD… White        61 Male    Balt… MD     39.2 -76.6
    ##  5 Bal-…  2.01e7 CUNNIN… MICHAEL Black        46 Male    Balt… MD     39.4 -76.6
    ##  6 Bal-…  2.01e7 ALSTON  RAY WI… Black        27 Male    Balt… MD     39.3 -76.6
    ##  7 Bal-…  2.01e7 HENDER… YULE A… Black        21 Male    Balt… MD     39.3 -76.6
    ##  8 Bal-…  2.01e7 MCDOWE… MARCU   Black        16 Male    Balt… MD     39.3 -76.6
    ##  9 Bal-…  2.01e7 GARDNER RODNEY… Black        21 Male    Balt… MD     39.3 -76.6
    ## 10 Bal-…  2.01e7 BURNET… NELSENE Black        44 Female  Balt… MD     39.3 -76.7
    ## # … with 2,743 more rows, 3 more variables: disposition <chr>,
    ## #   city_state <chr>, resolved <chr>, and abbreviated variable names
    ## #   ¹​reported_date, ²​victim_last, ³​victim_first, ⁴​victim_race, ⁵​victim_age,
    ## #   ⁶​victim_sex
…
